{
  "epochs": 1250,
  "num_training_epoch_per_valid": 20,
  "learning_rate": 1e-4,
  "multi_gpu": false,
  "dynamic_input_shape": true,
  "use_amp": false,

  "train": {
    "loss": {
      "name": "Dice"
    },
    "optimizer": {
      "name": "Adam"
    },
    "model": {
      "name": "SegAhnet",
      "args": {
        "num_classes": 2,
        "if_use_psp": false,
        "pretrain_weight_name": "{PRETRAIN_WEIGHTS_FILE}",
        "plane": "z",
        "final_activation": "softmax",
        "n_spatial_dim": 3
      }
    },
    "pre_transforms": [
      {
        "name": "LoadNifti",
        "args": {
          "fields": [
            "image",
            "label"
          ]
        }
      },
      {
        "name": "ConvertToChannelsFirst",
        "args": {
          "fields": [
            "image",
            "label"
          ]
        }
      },
      {
        "name": "ScaleIntensityRange",
        "args": {
          "fields": "image",
          "a_min": -57,
          "a_max": 164,
          "b_min": 0.0,
          "b_max": 1.0,
          "clip": true
        }
      },
      {
        "name": "FastCropByPosNegRatio",
        "args": {
          "size": [
            96,
            96,
            96
          ],
          "fields": "image",
          "label_field": "label",
          "pos": 1,
          "neg": 1,
          "batch_size": 3
        }
      },
      {
        "name": "RandomAxisFlip",
        "args": {
          "fields": [
            "image",
            "label"
          ],
          "probability": 0.0
        }
      },
      {
        "name": "RandomRotate3D",
        "args": {
          "fields": [
            "image",
            "label"
          ],
          "probability": 0.0
        }
      },
      {
        "name": "ScaleIntensityOscillation",
        "args": {
          "fields": "image",
          "magnitude": 0.10
        }
      }
    ],
    "image_pipeline": {
      "name": "SegmentationImagePipelineWithCache",
      "args": {
        "data_list_file_path": "{DATASET_JSON}",
        "data_file_base_dir": "{DATA_ROOT}",
        "data_list_key": "training",
        "output_crop_size": [96, 96, 96],
        "output_batch_size": 3,
        "batched_by_transforms": true,
        "num_workers": 2,
        "prefetch_size": 0,
        "num_cache_objects": 20,
        "replace_percent": 0.25
      }
    }
  },
  "validate": {
    "metrics": [
      {
        "name": "ComputeAverageDice",
        "args": {
          "name": "mean_dice",
          "is_key_metric": true,
          "field": "model",
          "label_field": "label"
        }
      }
    ],
    "pre_transforms": [
      {
        "name": "LoadNifti",
        "args": {
          "fields": [
            "image",
            "label"
          ]
        }
      },
      {
        "name": "ConvertToChannelsFirst",
        "args": {
          "fields": [
            "image",
            "label"
          ]
        }
      },
      {
        "name": "ScaleIntensityRange",
        "args": {
          "fields": "image",
          "a_min": -57,
          "a_max": 164,
          "b_min": 0.0,
          "b_max": 1.0,
          "clip": true
        }
      }
    ],
    "image_pipeline": {
      "name": "SegmentationImagePipeline",
      "args": {
        "data_list_file_path": "{DATASET_JSON}",
        "data_file_base_dir": "{DATA_ROOT}",
        "data_list_key": "validation",
        "output_crop_size": [
          -1,
          -1,
          -1
        ],
        "output_batch_size": 1,
        "num_workers": 2,
        "prefetch_size": 0
      }
    },
    "inferer": {
      "name": "TFScanWindowInferer",
      "args": {
        "roi_size": [
          160,
          160,
          160
        ]
      }
    }
  }
}
